…
# Social Distance (Paradigmatic Replication)

## Effects calculated from raw data

``` r
item_effects_social
```

    ## # A tibble: 25 × 4
    ##    item         d   ci_lb   ci_ub
    ##    <chr>    <dbl>   <dbl>   <dbl>
    ##  1 bif_01 -0.200  -0.273  -0.127 
    ##  2 bif_02 -0.324  -0.397  -0.251 
    ##  3 bif_03  0.0863  0.0137  0.159 
    ##  4 bif_04  0.135   0.0619  0.207 
    ##  5 bif_05  0.0405 -0.0321  0.113 
    ##  6 bif_06  0.0325 -0.0401  0.105 
    ##  7 bif_07 -0.166  -0.239  -0.0938
    ##  8 bif_08 -0.0222 -0.0948  0.0503
    ##  9 bif_09 -0.199  -0.271  -0.126 
    ## 10 bif_10 -0.148  -0.220  -0.0749
    ## # ℹ 15 more rows
…
